cl__1 = 0.03;
Point(1) = {0, 0, 0, 0.03};
Point(2) = {1, 0, 0, 0.03};
Point(3) = {1, 1, 0, 0.03};
Point(4) = {0, 1, 0, 0.03};
Line(1) = {1, 2};
Line(2) = {2, 3};
Line(3) = {3, 4};
Line(4) = {4, 1};
Line Loop(6) = {3, 4, 1, 2};
Plane Surface(6) = {6};
Physical Line(1) = {4};
Physical Line(2) = {2};
Physical Line(3) = {1};
Physical Line(4) = {3};
Physical Surface(0) = {6};
